[STEP 1]-----------------------------------------------------

Gemfileに以下を追加し、bundle install

gem 'kaminari'

-------------------------------------------------------------


[STEP 2]-----------------------------------------------------

PagesControllerを以下のように変更。

class PagesController < ApplicationController

  def top

    @tweets = Tweet.page(params[:page]).per(5)

  end

  def about
  end

end

-------------------------------------------------------------

params[:page]で現在のページ番号を取得し、
pageメソッドでそのページに必要なレコードのみ取得している。

また、perメソッドに数を指定すると、
その個数だけレコードを取得し、ページに表示するよう設定が可能。

[STEP 3]-----------------------------------------------------
以下をtop.html.erbの下に記述。ページ移動のためのリンクが生成される。

<%= paginate @tweets %>

-------------------------------------------------------------



